<?xml version="1.0" encoding="UTF-8"?>
<session version="1.0">
<refactoring comment="Rename type &apos;main.main&apos; to &apos;Main&apos;&#x0D;&#x0A;- Original project: &apos;Ej14_Nómina&apos;&#x0D;&#x0A;- Original element: &apos;main.main&apos;&#x0D;&#x0A;- Renamed element: &apos;main.Main&apos;&#x0D;&#x0A;- Update references to refactored element&#x0D;&#x0A;- Update textual occurrences in comments and strings" description="Rename type &apos;main&apos;" flags="589830" id="org.eclipse.jdt.ui.rename.type" input="/src&lt;main{main.java[main" matchStrategy="1" name="Main" qualified="false" references="true" similarDeclarations="false" stamp="1571399456631" textual="false" version="1.0"/>
</session>