<?xml version="1.0" encoding="UTF-8"?>
<session version="1.0">
<refactoring comment="Delete resource &apos;Deberes_4&apos;" deleteContents="true" description="Delete resource &apos;Deberes_4&apos;" element1="/Deberes_4" flags="7" id="org.eclipse.ltk.core.refactoring.delete.resources" resources="1" stamp="1569928765264"/>
</session>